out/ro_top.vcd
$date
	Fri Aug  9 13:43:29 2024
$end
$version
	Icarus Verilog
$end
$timescale
	1s
$end
$scope module ro_top_tb $end
$var wire 8 ! d_out_tb [7:0] $end
$var reg 1 " clk_tb $end
$var reg 1 # en_tb $end
$scope module ro_top_I $end
$var wire 1 " clk $end
$var wire 8 $ d_out [7:0] $end
$var wire 1 # en $end
$var wire 8 % xor_out [7:0] $end
$var wire 16 & ro_out [15:0] $end
$var parameter 32 ' SIZE $end
$var reg 8 ( d_out_internal [7:0] $end
$scope begin genblk1[0] $end
$var parameter 2 ) i $end
$scope module ro_1 $end
$var wire 1 # en $end
$var wire 1 * ro_out $end
$var wire 3 + interm_wires [2:0] $end
$var parameter 32 , SIZE $end
$scope begin genblk1[1] $end
$var parameter 2 - i $end
$scope module n $end
$var wire 1 . a $end
$var wire 1 / inversedA $end
$upscope $end
$upscope $end
$scope begin genblk1[2] $end
$var parameter 3 0 i $end
$scope module n $end
$var wire 1 1 a $end
$var wire 1 2 inversedA $end
$upscope $end
$upscope $end
$upscope $end
$scope module ro_2 $end
$var wire 1 # en $end
$var wire 1 3 ro_out $end
$var wire 5 4 interm_wires [4:0] $end
$var parameter 32 5 SIZE $end
$scope begin genblk1[1] $end
$var parameter 2 6 i $end
$scope module n $end
$var wire 1 7 a $end
$var wire 1 8 inversedA $end
$upscope $end
$upscope $end
$scope begin genblk1[2] $end
$var parameter 3 9 i $end
$scope module n $end
$var wire 1 : a $end
$var wire 1 ; inversedA $end
$upscope $end
$upscope $end
$scope begin genblk1[3] $end
$var parameter 3 < i $end
$scope module n $end
$var wire 1 = a $end
$var wire 1 > inversedA $end
$upscope $end
$upscope $end
$scope begin genblk1[4] $end
$var parameter 4 ? i $end
$scope module n $end
$var wire 1 @ a $end
$var wire 1 A inversedA $end
$upscope $end
$upscope $end
$upscope $end
$upscope $end
$scope begin genblk1[1] $end
$var parameter 2 B i $end
$scope module ro_1 $end
$var wire 1 # en $end
$var wire 1 C ro_out $end
$var wire 3 D interm_wires [2:0] $end
$var parameter 32 E SIZE $end
$scope begin genblk1[1] $end
$var parameter 2 F i $end
$scope module n $end
$var wire 1 G a $end
$var wire 1 H inversedA $end
$upscope $end
$upscope $end
$scope begin genblk1[2] $end
$var parameter 3 I i $end
$scope module n $end
$var wire 1 J a $end
$var wire 1 K inversedA $end
$upscope $end
$upscope $end
$upscope $end
$scope module ro_2 $end
$var wire 1 # en $end
$var wire 1 L ro_out $end
$var wire 5 M interm_wires [4:0] $end
$var parameter 32 N SIZE $end
$scope begin genblk1[1] $end
$var parameter 2 O i $end
$scope module n $end
$var wire 1 P a $end
$var wire 1 Q inversedA $end
$upscope $end
$upscope $end
$scope begin genblk1[2] $end
$var parameter 3 R i $end
$scope module n $end
$var wire 1 S a $end
$var wire 1 T inversedA $end
$upscope $end
$upscope $end
$scope begin genblk1[3] $end
$var parameter 3 U i $end
$scope module n $end
$var wire 1 V a $end
$var wire 1 W inversedA $end
$upscope $end
$upscope $end
$scope begin genblk1[4] $end
$var parameter 4 X i $end
$scope module n $end
$var wire 1 Y a $end
$var wire 1 Z inversedA $end
$upscope $end
$upscope $end
$upscope $end
$upscope $end
$scope begin genblk1[2] $end
$var parameter 3 [ i $end
$scope module ro_1 $end
$var wire 1 # en $end
$var wire 1 \ ro_out $end
$var wire 3 ] interm_wires [2:0] $end
$var parameter 32 ^ SIZE $end
$scope begin genblk1[1] $end
$var parameter 2 _ i $end
$scope module n $end
$var wire 1 ` a $end
$var wire 1 a inversedA $end
$upscope $end
$upscope $end
$scope begin genblk1[2] $end
$var parameter 3 b i $end
$scope module n $end
$var wire 1 c a $end
$var wire 1 d inversedA $end
$upscope $end
$upscope $end
$upscope $end
$scope module ro_2 $end
$var wire 1 # en $end
$var wire 1 e ro_out $end
$var wire 5 f interm_wires [4:0] $end
$var parameter 32 g SIZE $end
$scope begin genblk1[1] $end
$var parameter 2 h i $end
$scope module n $end
$var wire 1 i a $end
$var wire 1 j inversedA $end
$upscope $end
$upscope $end
$scope begin genblk1[2] $end
$var parameter 3 k i $end
$scope module n $end
$var wire 1 l a $end
$var wire 1 m inversedA $end
$upscope $end
$upscope $end
$scope begin genblk1[3] $end
$var parameter 3 n i $end
$scope module n $end
$var wire 1 o a $end
$var wire 1 p inversedA $end
$upscope $end
$upscope $end
$scope begin genblk1[4] $end
$var parameter 4 q i $end
$scope module n $end
$var wire 1 r a $end
$var wire 1 s inversedA $end
$upscope $end
$upscope $end
$upscope $end
$upscope $end
$scope begin genblk1[3] $end
$var parameter 3 t i $end
$scope module ro_1 $end
$var wire 1 # en $end
$var wire 1 u ro_out $end
$var wire 3 v interm_wires [2:0] $end
$var parameter 32 w SIZE $end
$scope begin genblk1[1] $end
$var parameter 2 x i $end
$scope module n $end
$var wire 1 y a $end
$var wire 1 z inversedA $end
$upscope $end
$upscope $end
$scope begin genblk1[2] $end
$var parameter 3 { i $end
$scope module n $end
$var wire 1 | a $end
$var wire 1 } inversedA $end
$upscope $end
$upscope $end
$upscope $end
$scope module ro_2 $end
$var wire 1 # en $end
$var wire 1 ~ ro_out $end
$var wire 5 !" interm_wires [4:0] $end
$var parameter 32 "" SIZE $end
$scope begin genblk1[1] $end
$var parameter 2 #" i $end
$scope module n $end
$var wire 1 $" a $end
$var wire 1 %" inversedA $end
$upscope $end
$upscope $end
$scope begin genblk1[2] $end
$var parameter 3 &" i $end
$scope module n $end
$var wire 1 '" a $end
$var wire 1 (" inversedA $end
$upscope $end
$upscope $end
$scope begin genblk1[3] $end
$var parameter 3 )" i $end
$scope module n $end
$var wire 1 *" a $end
$var wire 1 +" inversedA $end
$upscope $end
$upscope $end
$scope begin genblk1[4] $end
$var parameter 4 ," i $end
$scope module n $end
$var wire 1 -" a $end
$var wire 1 ." inversedA $end
$upscope $end
$upscope $end
$upscope $end
$upscope $end
$scope begin genblk1[4] $end
$var parameter 4 /" i $end
$scope module ro_1 $end
$var wire 1 # en $end
$var wire 1 0" ro_out $end
$var wire 3 1" interm_wires [2:0] $end
$var parameter 32 2" SIZE $end
$scope begin genblk1[1] $end
$var parameter 2 3" i $end
$scope module n $end
$var wire 1 4" a $end
$var wire 1 5" inversedA $end
$upscope $end
$upscope $end
$scope begin genblk1[2] $end
$var parameter 3 6" i $end
$scope module n $end
$var wire 1 7" a $end
$var wire 1 8" inversedA $end
$upscope $end
$upscope $end
$upscope $end
$scope module ro_2 $end
$var wire 1 # en $end
$var wire 1 9" ro_out $end
$var wire 5 :" interm_wires [4:0] $end
$var parameter 32 ;" SIZE $end
$scope begin genblk1[1] $end
$var parameter 2 <" i $end
$scope module n $end
$var wire 1 =" a $end
$var wire 1 >" inversedA $end
$upscope $end
$upscope $end
$scope begin genblk1[2] $end
$var parameter 3 ?" i $end
$scope module n $end
$var wire 1 @" a $end
$var wire 1 A" inversedA $end
$upscope $end
$upscope $end
$scope begin genblk1[3] $end
$var parameter 3 B" i $end
$scope module n $end
$var wire 1 C" a $end
$var wire 1 D" inversedA $end
$upscope $end
$upscope $end
$scope begin genblk1[4] $end
$var parameter 4 E" i $end
$scope module n $end
$var wire 1 F" a $end
$var wire 1 G" inversedA $end
$upscope $end
$upscope $end
$upscope $end
$upscope $end
$scope begin genblk1[5] $end
$var parameter 4 H" i $end
$scope module ro_1 $end
$var wire 1 # en $end
$var wire 1 I" ro_out $end
$var wire 3 J" interm_wires [2:0] $end
$var parameter 32 K" SIZE $end
$scope begin genblk1[1] $end
$var parameter 2 L" i $end
$scope module n $end
$var wire 1 M" a $end
$var wire 1 N" inversedA $end
$upscope $end
$upscope $end
$scope begin genblk1[2] $end
$var parameter 3 O" i $end
$scope module n $end
$var wire 1 P" a $end
$var wire 1 Q" inversedA $end
$upscope $end
$upscope $end
$upscope $end
$scope module ro_2 $end
$var wire 1 # en $end
$var wire 1 R" ro_out $end
$var wire 5 S" interm_wires [4:0] $end
$var parameter 32 T" SIZE $end
$scope begin genblk1[1] $end
$var parameter 2 U" i $end
$scope module n $end
$var wire 1 V" a $end
$var wire 1 W" inversedA $end
$upscope $end
$upscope $end
$scope begin genblk1[2] $end
$var parameter 3 X" i $end
$scope module n $end
$var wire 1 Y" a $end
$var wire 1 Z" inversedA $end
$upscope $end
$upscope $end
$scope begin genblk1[3] $end
$var parameter 3 [" i $end
$scope module n $end
$var wire 1 \" a $end
$var wire 1 ]" inversedA $end
$upscope $end
$upscope $end
$scope begin genblk1[4] $end
$var parameter 4 ^" i $end
$scope module n $end
$var wire 1 _" a $end
$var wire 1 `" inversedA $end
$upscope $end
$upscope $end
$upscope $end
$upscope $end
$scope begin genblk1[6] $end
$var parameter 4 a" i $end
$scope module ro_1 $end
$var wire 1 # en $end
$var wire 1 b" ro_out $end
$var wire 3 c" interm_wires [2:0] $end
$var parameter 32 d" SIZE $end
$scope begin genblk1[1] $end
$var parameter 2 e" i $end
$scope module n $end
$var wire 1 f" a $end
$var wire 1 g" inversedA $end
$upscope $end
$upscope $end
$scope begin genblk1[2] $end
$var parameter 3 h" i $end
$scope module n $end
$var wire 1 i" a $end
$var wire 1 j" inversedA $end
$upscope $end
$upscope $end
$upscope $end
$scope module ro_2 $end
$var wire 1 # en $end
$var wire 1 k" ro_out $end
$var wire 5 l" interm_wires [4:0] $end
$var parameter 32 m" SIZE $end
$scope begin genblk1[1] $end
$var parameter 2 n" i $end
$scope module n $end
$var wire 1 o" a $end
$var wire 1 p" inversedA $end
$upscope $end
$upscope $end
$scope begin genblk1[2] $end
$var parameter 3 q" i $end
$scope module n $end
$var wire 1 r" a $end
$var wire 1 s" inversedA $end
$upscope $end
$upscope $end
$scope begin genblk1[3] $end
$var parameter 3 t" i $end
$scope module n $end
$var wire 1 u" a $end
$var wire 1 v" inversedA $end
$upscope $end
$upscope $end
$scope begin genblk1[4] $end
$var parameter 4 w" i $end
$scope module n $end
$var wire 1 x" a $end
$var wire 1 y" inversedA $end
$upscope $end
$upscope $end
$upscope $end
$upscope $end
$scope begin genblk1[7] $end
$var parameter 4 z" i $end
$scope module ro_1 $end
$var wire 1 # en $end
$var wire 1 {" ro_out $end
$var wire 3 |" interm_wires [2:0] $end
$var parameter 32 }" SIZE $end
$scope begin genblk1[1] $end
$var parameter 2 ~" i $end
$scope module n $end
$var wire 1 !# a $end
$var wire 1 "# inversedA $end
$upscope $end
$upscope $end
$scope begin genblk1[2] $end
$var parameter 3 ## i $end
$scope module n $end
$var wire 1 $# a $end
$var wire 1 %# inversedA $end
$upscope $end
$upscope $end
$upscope $end
$scope module ro_2 $end
$var wire 1 # en $end
$var wire 1 &# ro_out $end
$var wire 5 '# interm_wires [4:0] $end
$var parameter 32 (# SIZE $end
$scope begin genblk1[1] $end
$var parameter 2 )# i $end
$scope module n $end
$var wire 1 *# a $end
$var wire 1 +# inversedA $end
$upscope $end
$upscope $end
$scope begin genblk1[2] $end
$var parameter 3 ,# i $end
$scope module n $end
$var wire 1 -# a $end
$var wire 1 .# inversedA $end
$upscope $end
$upscope $end
$scope begin genblk1[3] $end
$var parameter 3 /# i $end
$scope module n $end
$var wire 1 0# a $end
$var wire 1 1# inversedA $end
$upscope $end
$upscope $end
$scope begin genblk1[4] $end
$var parameter 4 2# i $end
$scope module n $end
$var wire 1 3# a $end
$var wire 1 4# inversedA $end
$upscope $end
$upscope $end
$upscope $end
$upscope $end
$upscope $end
$upscope $end
$enddefinitions $end
$comment Show the parameter values. $end
$dumpall
b100 2#
b11 /#
b10 ,#
b1 )#
b10 (#
b10 ##
b1 ~"
b1 }"
b111 z"
b100 w"
b11 t"
b10 q"
b1 n"
b10 m"
b10 h"
b1 e"
b1 d"
b110 a"
b100 ^"
b11 ["
b10 X"
b1 U"
b10 T"
b10 O"
b1 L"
b1 K"
b101 H"
b100 E"
b11 B"
b10 ?"
b1 <"
b10 ;"
b10 6"
b1 3"
b1 2"
b100 /"
b100 ,"
b11 )"
b10 &"
b1 #"
b10 ""
b10 {
b1 x
b1 w
b11 t
b100 q
b11 n
b10 k
b1 h
b10 g
b10 b
b1 _
b1 ^
b10 [
b100 X
b11 U
b10 R
b1 O
b10 N
b10 I
b1 F
b1 E
b1 B
b100 ?
b11 <
b10 9
b1 6
b10 5
b10 0
b1 -
b1 ,
b0 )
b1000 '
$end
#0
$dumpvars
x4#
x3#
x1#
x0#
x.#
x-#
x+#
x*#
bx '#
x&#
x%#
x$#
x"#
x!#
bx |"
x{"
xy"
xx"
xv"
xu"
xs"
xr"
xp"
xo"
bx l"
xk"
xj"
xi"
xg"
xf"
bx c"
xb"
x`"
x_"
x]"
x\"
xZ"
xY"
xW"
xV"
bx S"
xR"
xQ"
xP"
xN"
xM"
bx J"
xI"
xG"
xF"
xD"
xC"
xA"
x@"
x>"
x="
bx :"
x9"
x8"
x7"
x5"
x4"
bx 1"
x0"
x."
x-"
x+"
x*"
x("
x'"
x%"
x$"
bx !"
x~
x}
x|
xz
xy
bx v
xu
xs
xr
xp
xo
xm
xl
xj
xi
bx f
xe
xd
xc
xa
x`
bx ]
x\
xZ
xY
xW
xV
xT
xS
xQ
xP
bx M
xL
xK
xJ
xH
xG
bx D
xC
xA
x@
x>
x=
x;
x:
x8
x7
bx 4
x3
x2
x1
x/
x.
bx +
x*
bx (
bx &
bx %
bx $
0#
0"
bx !
$end
#1
1*#
1o"
1V"
1="
1$"
1i
1P
17
bx1 '#
1!#
bx1 l"
1f"
bx1 S"
1M"
bx1 :"
14"
bx1 !"
1y
bx1 f
1`
bx1 M
1G
bx1 4
1.
bx1 |"
bx1 c"
bx1 J"
bx1 1"
bx1 v
bx1 ]
bx1 D
bx1 +
#2
0-#
0r"
0Y"
0@"
0'"
0l
0S
0:
bx01 '#
bx01 l"
bx01 S"
bx01 :"
bx01 !"
bx01 f
bx01 M
bx01 4
0$#
0i"
0P"
07"
0|
0c
0J
01
bx01 |"
bx01 c"
bx01 J"
bx01 1"
bx01 v
bx01 ]
bx01 D
bx01 +
0+#
0p"
0W"
0>"
0%"
0j
0Q
08
0"#
0g"
0N"
05"
0z
0a
0H
0/
#3
bx1x1x1x1x1x1x1x1 &
10#
1u"
1\"
1C"
1*"
1o
1V
1=
bx101 '#
bx101 l"
bx101 S"
bx101 :"
bx101 !"
bx101 f
bx101 M
bx101 4
1{"
1b"
1I"
10"
1u
1\
1C
1*
b101 |"
b101 c"
b101 J"
b101 1"
b101 v
b101 ]
b101 D
b101 +
1.#
1s"
1Z"
1A"
1("
1m
1T
1;
1%#
1j"
1Q"
18"
1}
1d
1K
12
#4
03#
0x"
0_"
0F"
0-"
0r
0Y
0@
bx0101 '#
bx0101 l"
bx0101 S"
bx0101 :"
bx0101 !"
bx0101 f
bx0101 M
bx0101 4
01#
0v"
0]"
0D"
0+"
0p
0W
0>
#5
b0 %
b1111111111111111 &
1&#
1k"
1R"
19"
1~
1e
1L
13
b10101 '#
b10101 l"
b10101 S"
b10101 :"
b10101 !"
b10101 f
b10101 M
b10101 4
14#
1y"
1`"
1G"
1."
1s
1Z
1A
#10
b0 !
b0 $
b0 (
1"
#20
0"
#30
1"
1#
#31
07
0P
0i
0$"
0="
0V"
0o"
0*#
0.
b10100 4
0G
b10100 M
0`
b10100 f
0y
b10100 !"
04"
b10100 :"
0M"
b10100 S"
0f"
b10100 l"
0!#
b10100 '#
b100 +
b100 D
b100 ]
b100 v
b100 1"
b100 J"
b100 c"
b100 |"
#32
1:
1S
1l
1'"
1@"
1Y"
1r"
1-#
b10110 4
b10110 M
b10110 f
b10110 !"
b10110 :"
b10110 S"
b10110 l"
b10110 '#
11
1J
1c
1|
17"
1P"
1i"
1$#
b110 +
b110 D
b110 ]
b110 v
b110 1"
b110 J"
b110 c"
b110 |"
18
1Q
1j
1%"
1>"
1W"
1p"
1+#
1/
1H
1a
1z
15"
1N"
1g"
1"#
#33
b11111111 %
b1010101010101010 &
0=
0V
0o
0*"
0C"
0\"
0u"
00#
b10010 4
b10010 M
b10010 f
b10010 !"
b10010 :"
b10010 S"
b10010 l"
b10010 '#
0*
0C
0\
0u
00"
0I"
0b"
0{"
b10 +
b10 D
b10 ]
b10 v
b10 1"
b10 J"
b10 c"
b10 |"
0;
0T
0m
0("
0A"
0Z"
0s"
0.#
02
0K
0d
0}
08"
0Q"
0j"
0%#
#34
1@
1Y
1r
1-"
1F"
1_"
1x"
13#
b11010 4
b11010 M
b11010 f
b11010 !"
b11010 :"
b11010 S"
b11010 l"
b11010 '#
1.
1G
1`
1y
14"
1M"
1f"
1!#
b11 +
b11 D
b11 ]
b11 v
b11 1"
b11 J"
b11 c"
b11 |"
1>
1W
1p
1+"
1D"
1]"
1v"
11#
#35
b0 %
b0 &
03
0L
0e
0~
09"
0R"
0k"
0&#
b1010 4
b1010 M
b1010 f
b1010 !"
b1010 :"
b1010 S"
b1010 l"
b1010 '#
01
0J
0c
0|
07"
0P"
0i"
0$#
b1 +
b1 D
b1 ]
b1 v
b1 1"
b1 J"
b1 c"
b1 |"
0A
0Z
0s
0."
0G"
0`"
0y"
04#
0/
0H
0a
0z
05"
0N"
0g"
0"#
#36
b11111111 %
b101010101010101 &
17
1P
1i
1$"
1="
1V"
1o"
1*#
b1011 4
b1011 M
b1011 f
b1011 !"
b1011 :"
b1011 S"
b1011 l"
b1011 '#
1*
1C
1\
1u
10"
1I"
1b"
1{"
b101 +
b101 D
b101 ]
b101 v
b101 1"
b101 J"
b101 c"
b101 |"
12
1K
1d
1}
18"
1Q"
1j"
1%#
#37
0:
0S
0l
0'"
0@"
0Y"
0r"
0-#
b1001 4
b1001 M
b1001 f
b1001 !"
b1001 :"
b1001 S"
b1001 l"
b1001 '#
0.
0G
0`
0y
04"
0M"
0f"
0!#
b100 +
b100 D
b100 ]
b100 v
b100 1"
b100 J"
b100 c"
b100 |"
08
0Q
0j
0%"
0>"
0W"
0p"
0+#
#38
1=
1V
1o
1*"
1C"
1\"
1u"
10#
b1101 4
b1101 M
b1101 f
b1101 !"
b1101 :"
b1101 S"
b1101 l"
b1101 '#
11
1J
1c
1|
17"
1P"
1i"
1$#
b110 +
b110 D
b110 ]
b110 v
b110 1"
b110 J"
b110 c"
b110 |"
1;
1T
1m
1("
1A"
1Z"
1s"
1.#
1/
1H
1a
1z
15"
1N"
1g"
1"#
#39
b0 %
b0 &
0@
0Y
0r
0-"
0F"
0_"
0x"
03#
b101 4
b101 M
b101 f
b101 !"
b101 :"
b101 S"
b101 l"
b101 '#
0*
0C
0\
0u
00"
0I"
0b"
0{"
b10 +
b10 D
b10 ]
b10 v
b10 1"
b10 J"
b10 c"
b10 |"
0>
0W
0p
0+"
0D"
0]"
0v"
01#
02
0K
0d
0}
08"
0Q"
0j"
0%#
#40
b11111111 %
b1010101010101010 &
13
1L
1e
1~
19"
1R"
1k"
1&#
b10101 4
b10101 M
b10101 f
b10101 !"
b10101 :"
b10101 S"
b10101 l"
b10101 '#
1.
1G
1`
1y
14"
1M"
1f"
1!#
b11 +
b11 D
b11 ]
b11 v
b11 1"
b11 J"
b11 c"
b11 |"
1A
1Z
1s
1."
1G"
1`"
1y"
14#
0"
#41
07
0P
0i
0$"
0="
0V"
0o"
0*#
b10100 4
b10100 M
b10100 f
b10100 !"
b10100 :"
b10100 S"
b10100 l"
b10100 '#
01
0J
0c
0|
07"
0P"
0i"
0$#
b1 +
b1 D
b1 ]
b1 v
b1 1"
b1 J"
b1 c"
b1 |"
0/
0H
0a
0z
05"
0N"
0g"
0"#
#42
b0 %
b1111111111111111 &
1:
1S
1l
1'"
1@"
1Y"
1r"
1-#
b10110 4
b10110 M
b10110 f
b10110 !"
b10110 :"
b10110 S"
b10110 l"
b10110 '#
1*
1C
1\
1u
10"
1I"
1b"
1{"
b101 +
b101 D
b101 ]
b101 v
b101 1"
b101 J"
b101 c"
b101 |"
18
1Q
1j
1%"
1>"
1W"
1p"
1+#
12
1K
1d
1}
18"
1Q"
1j"
1%#
#43
0=
0V
0o
0*"
0C"
0\"
0u"
00#
b10010 4
b10010 M
b10010 f
b10010 !"
b10010 :"
b10010 S"
b10010 l"
b10010 '#
0.
0G
0`
0y
04"
0M"
0f"
0!#
b100 +
b100 D
b100 ]
b100 v
b100 1"
b100 J"
b100 c"
b100 |"
0;
0T
0m
0("
0A"
0Z"
0s"
0.#
#44
1@
1Y
1r
1-"
1F"
1_"
1x"
13#
b11010 4
b11010 M
b11010 f
b11010 !"
b11010 :"
b11010 S"
b11010 l"
b11010 '#
11
1J
1c
1|
17"
1P"
1i"
1$#
b110 +
b110 D
b110 ]
b110 v
b110 1"
b110 J"
b110 c"
b110 |"
1>
1W
1p
1+"
1D"
1]"
1v"
11#
1/
1H
1a
1z
15"
1N"
1g"
1"#
#45
b0 %
b0 &
03
0L
0e
0~
09"
0R"
0k"
0&#
b1010 4
b1010 M
b1010 f
b1010 !"
b1010 :"
b1010 S"
b1010 l"
b1010 '#
0*
0C
0\
0u
00"
0I"
0b"
0{"
b10 +
b10 D
b10 ]
b10 v
b10 1"
b10 J"
b10 c"
b10 |"
0A
0Z
0s
0."
0G"
0`"
0y"
04#
02
0K
0d
0}
08"
0Q"
0j"
0%#
#46
17
1P
1i
1$"
1="
1V"
1o"
1*#
b1011 4
b1011 M
b1011 f
b1011 !"
b1011 :"
b1011 S"
b1011 l"
b1011 '#
1.
1G
1`
1y
14"
1M"
1f"
1!#
b11 +
b11 D
b11 ]
b11 v
b11 1"
b11 J"
b11 c"
b11 |"
#47
0:
0S
0l
0'"
0@"
0Y"
0r"
0-#
b1001 4
b1001 M
b1001 f
b1001 !"
b1001 :"
b1001 S"
b1001 l"
b1001 '#
01
0J
0c
0|
07"
0P"
0i"
0$#
b1 +
b1 D
b1 ]
b1 v
b1 1"
b1 J"
b1 c"
b1 |"
08
0Q
0j
0%"
0>"
0W"
0p"
0+#
0/
0H
0a
0z
05"
0N"
0g"
0"#
#48
b11111111 %
b101010101010101 &
1=
1V
1o
1*"
1C"
1\"
1u"
10#
b1101 4
b1101 M
b1101 f
b1101 !"
b1101 :"
b1101 S"
b1101 l"
b1101 '#
1*
1C
1\
1u
10"
1I"
1b"
1{"
b101 +
b101 D
b101 ]
b101 v
b101 1"
b101 J"
b101 c"
b101 |"
1;
1T
1m
1("
1A"
1Z"
1s"
1.#
12
1K
1d
1}
18"
1Q"
1j"
1%#
#49
0@
0Y
0r
0-"
0F"
0_"
0x"
03#
b101 4
b101 M
b101 f
b101 !"
b101 :"
b101 S"
b101 l"
b101 '#
0.
0G
0`
0y
04"
0M"
0f"
0!#
b100 +
b100 D
b100 ]
b100 v
b100 1"
b100 J"
b100 c"
b100 |"
0>
0W
0p
0+"
0D"
0]"
0v"
01#
#50
b11111111 !
b11111111 $
b11111111 (
b0 %
b1111111111111111 &
13
1L
1e
1~
19"
1R"
1k"
1&#
b10101 4
b10101 M
b10101 f
b10101 !"
b10101 :"
b10101 S"
b10101 l"
b10101 '#
11
1J
1c
1|
17"
1P"
1i"
1$#
b110 +
b110 D
b110 ]
b110 v
b110 1"
b110 J"
b110 c"
b110 |"
1A
1Z
1s
1."
1G"
1`"
1y"
14#
1/
1H
1a
1z
15"
1N"
1g"
1"#
1"
#51
b11111111 %
b1010101010101010 &
07
0P
0i
0$"
0="
0V"
0o"
0*#
b10100 4
b10100 M
b10100 f
b10100 !"
b10100 :"
b10100 S"
b10100 l"
b10100 '#
0*
0C
0\
0u
00"
0I"
0b"
0{"
b10 +
b10 D
b10 ]
b10 v
b10 1"
b10 J"
b10 c"
b10 |"
02
0K
0d
0}
08"
0Q"
0j"
0%#
#52
1:
1S
1l
1'"
1@"
1Y"
1r"
1-#
b10110 4
b10110 M
b10110 f
b10110 !"
b10110 :"
b10110 S"
b10110 l"
b10110 '#
1.
1G
1`
1y
14"
1M"
1f"
1!#
b11 +
b11 D
b11 ]
b11 v
b11 1"
b11 J"
b11 c"
b11 |"
18
1Q
1j
1%"
1>"
1W"
1p"
1+#
#53
0=
0V
0o
0*"
0C"
0\"
0u"
00#
b10010 4
b10010 M
b10010 f
b10010 !"
b10010 :"
b10010 S"
b10010 l"
b10010 '#
01
0J
0c
0|
07"
0P"
0i"
0$#
b1 +
b1 D
b1 ]
b1 v
b1 1"
b1 J"
b1 c"
b1 |"
0;
0T
0m
0("
0A"
0Z"
0s"
0.#
0/
0H
0a
0z
05"
0N"
0g"
0"#
#54
b0 %
b1111111111111111 &
1@
1Y
1r
1-"
1F"
1_"
1x"
13#
b11010 4
b11010 M
b11010 f
b11010 !"
b11010 :"
b11010 S"
b11010 l"
b11010 '#
1*
1C
1\
1u
10"
1I"
1b"
1{"
b101 +
b101 D
b101 ]
b101 v
b101 1"
b101 J"
b101 c"
b101 |"
1>
1W
1p
1+"
1D"
1]"
1v"
11#
12
1K
1d
1}
18"
1Q"
1j"
1%#
#55
b11111111 %
b101010101010101 &
03
0L
0e
0~
09"
0R"
0k"
0&#
b1010 4
b1010 M
b1010 f
b1010 !"
b1010 :"
b1010 S"
b1010 l"
b1010 '#
0.
0G
0`
0y
04"
0M"
0f"
0!#
b100 +
b100 D
b100 ]
b100 v
b100 1"
b100 J"
b100 c"
b100 |"
0A
0Z
0s
0."
0G"
0`"
0y"
04#
#56
17
1P
1i
1$"
1="
1V"
1o"
1*#
b1011 4
b1011 M
b1011 f
b1011 !"
b1011 :"
b1011 S"
b1011 l"
b1011 '#
11
1J
1c
1|
17"
1P"
1i"
1$#
b110 +
b110 D
b110 ]
b110 v
b110 1"
b110 J"
b110 c"
b110 |"
1/
1H
1a
1z
15"
1N"
1g"
1"#
#57
b0 %
b0 &
0:
0S
0l
0'"
0@"
0Y"
0r"
0-#
b1001 4
b1001 M
b1001 f
b1001 !"
b1001 :"
b1001 S"
b1001 l"
b1001 '#
0*
0C
0\
0u
00"
0I"
0b"
0{"
b10 +
b10 D
b10 ]
b10 v
b10 1"
b10 J"
b10 c"
b10 |"
08
0Q
0j
0%"
0>"
0W"
0p"
0+#
02
0K
0d
0}
08"
0Q"
0j"
0%#
#58
1=
1V
1o
1*"
1C"
1\"
1u"
10#
b1101 4
b1101 M
b1101 f
b1101 !"
b1101 :"
b1101 S"
b1101 l"
b1101 '#
1.
1G
1`
1y
14"
1M"
1f"
1!#
b11 +
b11 D
b11 ]
b11 v
b11 1"
b11 J"
b11 c"
b11 |"
1;
1T
1m
1("
1A"
1Z"
1s"
1.#
#59
0@
0Y
0r
0-"
0F"
0_"
0x"
03#
b101 4
b101 M
b101 f
b101 !"
b101 :"
b101 S"
b101 l"
b101 '#
01
0J
0c
0|
07"
0P"
0i"
0$#
b1 +
b1 D
b1 ]
b1 v
b1 1"
b1 J"
b1 c"
b1 |"
0>
0W
0p
0+"
0D"
0]"
0v"
01#
0/
0H
0a
0z
05"
0N"
0g"
0"#
#60
b0 %
b1111111111111111 &
13
1L
1e
1~
19"
1R"
1k"
1&#
b10101 4
b10101 M
b10101 f
b10101 !"
b10101 :"
b10101 S"
b10101 l"
b10101 '#
1*
1C
1\
1u
10"
1I"
1b"
1{"
b101 +
b101 D
b101 ]
b101 v
b101 1"
b101 J"
b101 c"
b101 |"
1A
1Z
1s
1."
1G"
1`"
1y"
14#
12
1K
1d
1}
18"
1Q"
1j"
1%#
0"
#61
07
0P
0i
0$"
0="
0V"
0o"
0*#
b10100 4
b10100 M
b10100 f
b10100 !"
b10100 :"
b10100 S"
b10100 l"
b10100 '#
0.
0G
0`
0y
04"
0M"
0f"
0!#
b100 +
b100 D
b100 ]
b100 v
b100 1"
b100 J"
b100 c"
b100 |"
#62
1:
1S
1l
1'"
1@"
1Y"
1r"
1-#
b10110 4
b10110 M
b10110 f
b10110 !"
b10110 :"
b10110 S"
b10110 l"
b10110 '#
11
1J
1c
1|
17"
1P"
1i"
1$#
b110 +
b110 D
b110 ]
b110 v
b110 1"
b110 J"
b110 c"
b110 |"
18
1Q
1j
1%"
1>"
1W"
1p"
1+#
1/
1H
1a
1z
15"
1N"
1g"
1"#
#63
b11111111 %
b1010101010101010 &
0=
0V
0o
0*"
0C"
0\"
0u"
00#
b10010 4
b10010 M
b10010 f
b10010 !"
b10010 :"
b10010 S"
b10010 l"
b10010 '#
0*
0C
0\
0u
00"
0I"
0b"
0{"
b10 +
b10 D
b10 ]
b10 v
b10 1"
b10 J"
b10 c"
b10 |"
0;
0T
0m
0("
0A"
0Z"
0s"
0.#
02
0K
0d
0}
08"
0Q"
0j"
0%#
#64
1@
1Y
1r
1-"
1F"
1_"
1x"
13#
b11010 4
b11010 M
b11010 f
b11010 !"
b11010 :"
b11010 S"
b11010 l"
b11010 '#
1.
1G
1`
1y
14"
1M"
1f"
1!#
b11 +
b11 D
b11 ]
b11 v
b11 1"
b11 J"
b11 c"
b11 |"
1>
1W
1p
1+"
1D"
1]"
1v"
11#
#65
b0 %
b0 &
03
0L
0e
0~
09"
0R"
0k"
0&#
b1010 4
b1010 M
b1010 f
b1010 !"
b1010 :"
b1010 S"
b1010 l"
b1010 '#
01
0J
0c
0|
07"
0P"
0i"
0$#
b1 +
b1 D
b1 ]
b1 v
b1 1"
b1 J"
b1 c"
b1 |"
0A
0Z
0s
0."
0G"
0`"
0y"
04#
0/
0H
0a
0z
05"
0N"
0g"
0"#
#66
b11111111 %
b101010101010101 &
17
1P
1i
1$"
1="
1V"
1o"
1*#
b1011 4
b1011 M
b1011 f
b1011 !"
b1011 :"
b1011 S"
b1011 l"
b1011 '#
1*
1C
1\
1u
10"
1I"
1b"
1{"
b101 +
b101 D
b101 ]
b101 v
b101 1"
b101 J"
b101 c"
b101 |"
12
1K
1d
1}
18"
1Q"
1j"
1%#
